[
  {
    "test_name": "서버 상태 확인",
    "success": true,
    "timestamp": "2025-09-27T23:20:44.804601",
    "details": "Status: 200",
    "response_data": null
  },
  {
    "test_name": "사용자 역할 업데이트",
    "success": true,
    "timestamp": "2025-09-27T23:20:45.131238",
    "details": "사용자 admin의 역할을 system_admin로 업데이트 완료",
    "response_data": null
  },
  {
    "test_name": "기존 관리자 로그인",
    "success": true,
    "timestamp": "2025-09-27T23:20:45.394201",
    "details": "기존 관리자 계정으로 로그인 성공",
    "response_data": null
  },
  {
    "test_name": "조직 생성",
    "success": true,
    "timestamp": "2025-09-27T23:20:45.634293",
    "details": "Status: 201, Org ID: e27effaa-445e-4ace-b032-36c431ab3ecd",
    "response_data": {
      "name": "테스트 조직 1758982845",
      "domain": "test1758982845.example.com",
      "description": "테스트용 조직입니다",
      "max_users": 100,
      "max_storage_gb": 1000,
      "settings": {},
      "org_id": "e27effaa-445e-4ace-b032-36c431ab3ecd",
      "org_code": "testorg1758982845",
      "subdomain": "testorg1758982845",
      "admin_email": "org_admin1758982845@test.com",
      "is_active": true,
      "created_at": "2025-09-27T23:20:45.398688+09:00",
      "updated_at": "2025-09-27T23:20:45.398688+09:00"
    }
  },
  {
    "test_name": "조직 목록 조회",
    "success": true,
    "timestamp": "2025-09-27T23:20:45.650300",
    "details": "Status: 200, Count: 0",
    "response_data": {
      "organizations": [],
      "total": 25,
      "page": 1,
      "limit": 20,
      "total_pages": 2
    }
  },
  {
    "test_name": "조직 정보 조회",
    "success": true,
    "timestamp": "2025-09-27T23:20:45.657560",
    "details": "Status: 200, Org ID: e27effaa-445e-4ace-b032-36c431ab3ecd",
    "response_data": {
      "name": "테스트 조직 1758982845",
      "domain": "test1758982845.example.com",
      "description": "테스트용 조직입니다",
      "max_users": 100,
      "max_storage_gb": 1000,
      "settings": {},
      "org_id": "e27effaa-445e-4ace-b032-36c431ab3ecd",
      "org_code": "testorg1758982845",
      "subdomain": "testorg1758982845",
      "admin_email": "org_admin1758982845@test.com",
      "is_active": true,
      "created_at": "2025-09-27T23:20:45.398688+09:00",
      "updated_at": "2025-09-27T23:20:45.398688+09:00"
    }
  },
  {
    "test_name": "조직 정보 수정",
    "success": false,
    "timestamp": "2025-09-27T23:20:45.670163",
    "details": "Status: 500",
    "response_data": {
      "error": "Server error"
    }
  },
  {
    "test_name": "조직 통계 조회",
    "success": true,
    "timestamp": "2025-09-27T23:20:45.687893",
    "details": "Status: 200",
    "response_data": {
      "organization": {
        "name": "테스트 조직 1758933660",
        "domain": "test1758933660.com",
        "description": "테스트용 조직입니다.",
        "max_users": 100,
        "max_storage_gb": 50,
        "settings": {},
        "org_id": "8ec5d494-5b55-43fd-a72f-35df47ad5a9a",
        "org_code": "테스트_조직_1758933660",
        "subdomain": "테스트_조직_1758933660",
        "admin_email": "admin1758933660@test1758933660.com",
        "is_active": true,
        "created_at": "2025-09-27T09:41:06.697902+09:00",
        "updated_at": "2025-09-27T09:41:06.697902+09:00"
      },
      "stats": {
        "org_id": "8ec5d494-5b55-43fd-a72f-35df47ad5a9a",
        "total_users": 2,
        "active_users": 2,
        "mail_users": 1,
        "storage_used_mb": 0,
        "storage_limit_mb": 51200,
        "storage_usage_percent": 0.0,
        "user_usage_percent": 2.0
      }
    }
  },
  {
    "test_name": "조직 설정 조회",
    "success": true,
    "timestamp": "2025-09-27T23:20:45.695923",
    "details": "Status: 200",
    "response_data": {
      "organization": {
        "name": "테스트 조직 1758933660",
        "domain": "test1758933660.com",
        "description": "테스트용 조직입니다.",
        "max_users": 100,
        "max_storage_gb": 50,
        "settings": {},
        "org_id": "8ec5d494-5b55-43fd-a72f-35df47ad5a9a",
        "org_code": "테스트_조직_1758933660",
        "subdomain": "테스트_조직_1758933660",
        "admin_email": "admin1758933660@test1758933660.com",
        "is_active": true,
        "created_at": "2025-09-27T09:41:06.697902+09:00",
        "updated_at": "2025-09-27T09:41:06.697902+09:00"
      },
      "settings": {
        "mail_retention_days": 365,
        "max_attachment_size_mb": 25,
        "enable_spam_filter": true,
        "enable_virus_scan": true,
        "enable_encryption": false,
        "backup_enabled": true,
        "backup_retention_days": 30,
        "notification_settings": {
          "email_notifications": true,
          "system_alerts": true,
          "security_alerts": true,
          "maintenance_notifications": true
        },
        "security_settings": {
          "password_policy": {
            "min_length": 8,
            "require_uppercase": true,
            "require_lowercase": true,
            "require_numbers": true,
            "require_special_chars": true
          },
          "session_timeout_minutes": 480,
          "max_login_attempts": 5,
          "lockout_duration_minutes": 30,
          "require_2fa": false
        },
        "feature_flags": {
          "advanced_search": true,
          "mail_templates": true,
          "auto_reply": true,
          "mail_forwarding": true,
          "calendar_integration": false,
          "mobile_app": true,
          "api_access": true
        }
      }
    }
  },
  {
    "test_name": "조직 설정 수정",
    "success": false,
    "timestamp": "2025-09-27T23:20:45.707331",
    "details": "Status: 404",
    "response_data": {
      "success": false,
      "message": "조직 설정을 찾을 수 없습니다.",
      "error_code": 404,
      "timestamp": 1758982845.7063267
    }
  },
  {
    "test_name": "현재 조직 정보 조회",
    "success": true,
    "timestamp": "2025-09-27T23:20:45.713648",
    "details": "Status: 200",
    "response_data": {
      "name": "테스트 조직 1758933660",
      "domain": "test1758933660.com",
      "description": "테스트용 조직입니다.",
      "max_users": 100,
      "max_storage_gb": 50,
      "settings": {},
      "org_id": "8ec5d494-5b55-43fd-a72f-35df47ad5a9a",
      "org_code": "테스트_조직_1758933660",
      "subdomain": "테스트_조직_1758933660",
      "admin_email": "admin1758933660@test1758933660.com",
      "is_active": true,
      "created_at": "2025-09-27T09:41:06.697902+09:00",
      "updated_at": "2025-09-27T09:41:06.697902+09:00"
    }
  },
  {
    "test_name": "현재 조직 통계 조회",
    "success": false,
    "timestamp": "2025-09-27T23:20:45.718653",
    "details": "Status: 404",
    "response_data": {
      "success": false,
      "message": "조직을 찾을 수 없습니다.",
      "error_code": 404,
      "timestamp": 1758982845.7186537
    }
  },
  {
    "test_name": "현재 조직 설정 조회",
    "success": false,
    "timestamp": "2025-09-27T23:20:45.725273",
    "details": "Status: 404",
    "response_data": {
      "success": false,
      "message": "조직 설정을 찾을 수 없습니다.",
      "error_code": 404,
      "timestamp": 1758982845.72464
    }
  }
]